[
    {
        "id": 1,
        "name": "TestName",
        "category": null,
        "description": "TestDescription",
        "link": "http://....",
        "type": "app",
        "image": "/",
        "tags": [
            {
                "id": 1,
                "name": "lebensmittel",
                "description": "alles mit Lebensmitteln (einkaufen)",
                "color": "#00FF00"
            }
        ]
    },
    {
        "id": 2,
        "name": "TestName",
        "category": null,
        "description": "TestDescription",
        "link": "http://....",
        "type": "app",
        "image": "/",
        "tags": [
            {
                "id": 1,
                "name": "lebensmittel",
                "description": "alles mit Lebensmitteln (einkaufen)",
                "color": "#00FF00"
            }
        ]
    },
    {
        "id": 3,
        "name": "ESSEN",
        "category": null,
        "description": "TestDescription",
        "link": "http://....",
        "type": "app",
        "image": "/",
        "tags": []
    },
    {
        "id": 4,
        "name": "ESSEN",
        "category": null,
        "description": "TestDescription",
        "link": "http://....",
        "type": "app",
        "image": "/",
        "tags": [
            {
                "id": 1,
                "name": "lebensmittel",
                "description": "alles mit Lebensmitteln (einkaufen)",
                "color": "#00FF00"
            }
        ]
    }
]